R入門 - 33 ネットワーク解析
…
morphで変形したグラフをそのまま固定するための関数がcrystallise関数です。crystallise関数を用いると、morphで指定した変形の状態などが固定され、tibbleとしてデータが返ってきます。

crystallise関数

g |> 
  mutate(group = group_infomap()) |> # クラスターに分けて
  morph(to_split, group) |> # グループで一時的に分割して
  crystallise() # crystalliseして固定してしまう
## Splitting by nodes
## # A tibble: 22 × 2
##    name      graph     
##    <chr>     <list>    
##  1 group: 1  <tbl_grph>
##  2 group: 2  <tbl_grph>
##  3 group: 3  <tbl_grph>
##  4 group: 4  <tbl_grph>
##  5 group: 5  <tbl_grph>
##  6 group: 6  <tbl_grph>
##  7 group: 7  <tbl_grph>
##  8 group: 8  <tbl_grph>
##  9 group: 9  <tbl_grph>
## 10 group: 10 <tbl_grph>
## # ℹ 12 more rows
…
上記のように、グラフの表示はグラフの理解において非常に重要です。igraphを用いることでグラフを様々な形式で表示することができますが、デザイン的にはggplot2などとは異なり、Rのデフォルトのプロットに近い形での表示となります。Rには、igraphだけでなく、グラフを表示するためのライブラリがいくつかありますので、以下に簡単に紹介します。

33.6.1 ggraph

ggraph(Pedersen 2024a)は上記のtidygraphの開発者が開発した、tbl_graphをggplot2の文法・デザインで描画するためのライブラリです。仕組みは比較的単純で、以下の例のようにtbl_graphをggplot2のグラフ表示に適したtibbleに変形し（create_layout関数）、ggplot2の文法でこのtibbleを表示しています。この変換において、nodeの位置をlayout引数で指定した位置に指定させています。

layout引数には"auto"、"igraph"、"dendrogram"、"manual"、"linear"、"matrix"、"treemap"などの様々な値を指定することができます。layoutによる違いは後ほど説明します。

ggraph：create_layout関数

pacman::p_load(ggraph)

create_layout(g, layout = "tree")
## # A tibble: 119 × 10
##        x     y name    lat   lon linename    company .ggraph.orig_index circular
##    <dbl> <dbl> <chr> <dbl> <dbl> <chr>       <chr>                <int> <lgl>   
##  1 -7.97    12 奈良   34.7  136. 万葉まほろ… JR                       1 FALSE   
##  2 -7.97    13 京終   34.7  136. 万葉まほろ… JR                       2 FALSE   
##  3 -7.97    14 帯解   34.6  136. 万葉まほろ… JR                       3 FALSE   
##  4 -7.97    15 櫟本   34.6  136. 万葉まほろ… JR                       4 FALSE   
##  5 -6.47    16 天理   34.6  136. 万葉まほろ… JR                       5 FALSE   
##  6 -6.47    17 長柄   34.6  136. 万葉まほろ… JR                       6 FALSE   
##  7 -6.47    18 柳本   34.6  136. 万葉まほろ… JR                       7 FALSE   
##  8 -6.47    19 巻向   34.5  136. 万葉まほろ… JR                       8 FALSE   
##  9 -6.47    20 三輪   34.5  136. 万葉まほろ… JR                       9 FALSE   
## 10 -3.03    21 桜井   34.5  136. 万葉まほろ… JR                      10 FALSE   
## # ℹ 109 more rows
## # ℹ 1 more variable: .ggraph.index <int>
…
