R入門 - 16 tidyr・dplyr
…
pivot_longerで縦持ちデータに変換

head(iris)
##   Sepal.Length Sepal.Width Petal.Length Petal.Width Species
## 1          5.1         3.5          1.4         0.2  setosa
## 2          4.9         3.0          1.4         0.2  setosa
## 3          4.7         3.2          1.3         0.2  setosa
## 4          4.6         3.1          1.5         0.2  setosa
## 5          5.0         3.6          1.4         0.2  setosa
## 6          5.4         3.9          1.7         0.4  setosa

# pivot_longer 縦持ちデータへの変換（返り値はtibble）
iris |> pivot_longer(cols = 1:4) 
## # A tibble: 600 × 3
##    Species name         value
##    <fct>   <chr>        <dbl>
##  1 setosa  Sepal.Length   5.1
##  2 setosa  Sepal.Width    3.5
##  3 setosa  Petal.Length   1.4
##  4 setosa  Petal.Width    0.2
##  5 setosa  Sepal.Length   4.9
##  6 setosa  Sepal.Width    3  
##  7 setosa  Petal.Length   1.4
##  8 setosa  Petal.Width    0.2
##  9 setosa  Sepal.Length   4.7
## 10 setosa  Sepal.Width    3.2
## # ℹ 590 more rows

# 上と同じ（列名を設定）
iris |> pivot_longer(cols = 1:4, names_to = "category", values_to = "value") 
## # A tibble: 600 × 3
##    Species category     value
##    <fct>   <chr>        <dbl>
##  1 setosa  Sepal.Length   5.1
##  2 setosa  Sepal.Width    3.5
##  3 setosa  Petal.Length   1.4
##  4 setosa  Petal.Width    0.2
##  5 setosa  Sepal.Length   4.9
##  6 setosa  Sepal.Width    3  
##  7 setosa  Petal.Length   1.4
##  8 setosa  Petal.Width    0.2
##  9 setosa  Sepal.Length   4.7
## 10 setosa  Sepal.Width    3.2
## # ℹ 590 more rows
…
16.4.3 横持ちへの変換：pivot_wider

pivot_wider関数は、データを横持ちに変換する関数です。pivot_wider関数は列名となる列をnames_from引数に、要素となる列をvalues_from引数に指定します。指定しなかった列はそのまま維持されます。names_fromで指定した列の要素は各列名となり、values_fromで指定した列の要素がnames_fromで新しく作られた列の値となります。この変換により、データは横長の、幅の広い構造を取ることになります。

横持ちへの変換もreshapeを用いて行うことができます。また、pivot_widerは以前はspreadという名前であったため、このspread関数を用いて横持ちデータへの変換を行うこともできます。

pivot_widerで横持ちデータに変換

# pivot_wider 横持ちデータへの変換
us_rent_income
## # A tibble: 104 × 5
##    GEOID NAME       variable estimate   moe
##    <chr> <chr>      <chr>       <dbl> <dbl>
##  1 01    Alabama    income      24476   136
##  2 01    Alabama    rent          747     3
##  3 02    Alaska     income      32940   508
##  4 02    Alaska     rent         1200    13
##  5 04    Arizona    income      27517   148
##  6 04    Arizona    rent          972     4
##  7 05    Arkansas   income      23789   165
##  8 05    Arkansas   rent          709     5
##  9 06    California income      29454   109
## 10 06    California rent         1358     3
## # ℹ 94 more rows

us_rent_income |> pivot_wider(names_from = variable, values_from = c(estimate, moe)) 
## # A tibble: 52 × 6
##    GEOID NAME                 estimate_income estimate_rent moe_income moe_rent
##    <chr> <chr>                          <dbl>         <dbl>      <dbl>    <dbl>
##  1 01    Alabama                        24476           747        136        3
##  2 02    Alaska                         32940          1200        508       13
##  3 04    Arizona                        27517           972        148        4
##  4 05    Arkansas                       23789           709        165        5
##  5 06    California                     29454          1358        109        3
##  6 08    Colorado                       32401          1125        109        5
##  7 09    Connecticut                    35326          1123        195        5
##  8 10    Delaware                       31560          1076        247       10
##  9 11    District of Columbia           43198          1424        681       17
## 10 12    Florida                        25952          1077         70        3
## # ℹ 42 more rows

# spread（valueは1つしか値を取れない）
us_rent_income |> spread(variable, estimate)
## # A tibble: 104 × 5
##    GEOID NAME         moe income  rent
##    <chr> <chr>      <dbl>  <dbl> <dbl>
##  1 01    Alabama        3     NA   747
##  2 01    Alabama      136  24476    NA
##  3 02    Alaska        13     NA  1200
##  4 02    Alaska       508  32940    NA
##  5 04    Arizona        4     NA   972
##  6 04    Arizona      148  27517    NA
##  7 05    Arkansas       5     NA   709
##  8 05    Arkansas     165  23789    NA
##  9 06    California     3     NA  1358
## 10 06    California   109  29454    NA
## # ℹ 94 more rows
…
if_else
ifelse文の取り扱いを良くした関数

16.5.1 filter関数

filter関数は、データフレームから条件に従い行を選択するための関数です。Rにはよく似たsubsetという関数がありますが、他のtidyverseの関数と共に用いる場合はfilter関数を用いたほうが良いでしょう。

filter関数はデータフレームを第一引数、条件式を第二引数に取る関数です。第二引数に指定した条件に合致した行のみを選択することができます。下の例では、Speciesの列の要素がsetosaである行を選択しています。

filter関数で行を選択

iris |> tibble() |> filter(Species == "setosa")
## # A tibble: 50 × 5
##    Sepal.Length Sepal.Width Petal.Length Petal.Width Species
##           <dbl>       <dbl>        <dbl>       <dbl> <fct>  
##  1          5.1         3.5          1.4         0.2 setosa 
##  2          4.9         3            1.4         0.2 setosa 
##  3          4.7         3.2          1.3         0.2 setosa 
##  4          4.6         3.1          1.5         0.2 setosa 
##  5          5           3.6          1.4         0.2 setosa 
##  6          5.4         3.9          1.7         0.4 setosa 
##  7          4.6         3.4          1.4         0.3 setosa 
##  8          5           3.4          1.5         0.2 setosa 
##  9          4.4         2.9          1.4         0.2 setosa 
## 10          4.9         3.1          1.5         0.1 setosa 
## # ℹ 40 more rows

16.5.2 select関数

select関数は、データフレームから列を選択するための関数です。select関数もデータフレームを第一引数にとり、それ以降に列名を引数に取ります。select関数を用いると、引数で指定した列のみを含むデータフレームが返ってきます。また、マイナスで列名を指定すると、その列を取り除いたデータフレームが返ってきます。

select関数で列を選択

iris |> tibble() |> select(Sepal.Length, Sepal.Width, Species)
## # A tibble: 150 × 3
##    Sepal.Length Sepal.Width Species
##           <dbl>       <dbl> <fct>  
##  1          5.1         3.5 setosa 
##  2          4.9         3   setosa 
##  3          4.7         3.2 setosa 
##  4          4.6         3.1 setosa 
##  5          5           3.6 setosa 
##  6          5.4         3.9 setosa 
##  7          4.6         3.4 setosa 
##  8          5           3.4 setosa 
##  9          4.4         2.9 setosa 
## 10          4.9         3.1 setosa 
## # ℹ 140 more rows

iris |> tibble() |> select(-Sepal.Length, -Sepal.Width, -Species)
## # A tibble: 150 × 2
##    Petal.Length Petal.Width
##           <dbl>       <dbl>
##  1          1.4         0.2
##  2          1.4         0.2
##  3          1.3         0.2
##  4          1.5         0.2
##  5          1.4         0.2
##  6          1.7         0.4
##  7          1.4         0.3
##  8          1.5         0.2
##  9          1.4         0.2
## 10          1.5         0.1
## # ℹ 140 more rows
…
where(関数)
論理型を返す関数に従い選択する

16.5.3 arrange関数

arrange関数は、データフレームを指定した列に従い、昇順（小さいものが上）に並べ替える関数です。order関数を用いてもデータフレームの並べ替えはできますが、arrange関数を用いるとより簡単に並べ替えを行うことができます。

arrange関数のヘルパーとして、desc関数が設定されています。desc関数はデータフレームを降順（大きいものが上）に並べ替える場合に用います。

arrange関数で並べ替え

iris |> tibble() |> arrange(Sepal.Length) # 昇順に並べ替え
## # A tibble: 150 × 5
##    Sepal.Length Sepal.Width Petal.Length Petal.Width Species
##           <dbl>       <dbl>        <dbl>       <dbl> <fct>  
##  1          4.3         3            1.1         0.1 setosa 
##  2          4.4         2.9          1.4         0.2 setosa 
##  3          4.4         3            1.3         0.2 setosa 
##  4          4.4         3.2          1.3         0.2 setosa 
##  5          4.5         2.3          1.3         0.3 setosa 
##  6          4.6         3.1          1.5         0.2 setosa 
##  7          4.6         3.4          1.4         0.3 setosa 
##  8          4.6         3.6          1           0.2 setosa 
##  9          4.6         3.2          1.4         0.2 setosa 
## 10          4.7         3.2          1.3         0.2 setosa 
## # ℹ 140 more rows

iris |> tibble() |> arrange(desc(Sepal.Length)) # 降順に並べ替え
## # A tibble: 150 × 5
##    Sepal.Length Sepal.Width Petal.Length Petal.Width Species  
##           <dbl>       <dbl>        <dbl>       <dbl> <fct>    
##  1          7.9         3.8          6.4         2   virginica
##  2          7.7         3.8          6.7         2.2 virginica
##  3          7.7         2.6          6.9         2.3 virginica
##  4          7.7         2.8          6.7         2   virginica
##  5          7.7         3            6.1         2.3 virginica
##  6          7.6         3            6.6         2.1 virginica
##  7          7.4         2.8          6.1         1.9 virginica
##  8          7.3         2.9          6.3         1.8 virginica
##  9          7.2         3.6          6.1         2.5 virginica
## 10          7.2         3.2          6           1.8 virginica
## # ℹ 140 more rows

16.5.4 mutate関数

mutate関数は、データフレームに新しい列を追加する関数です。mutateは第一引数にデータフレーム、第二引数に「新しい列の名前 = 値」という形で、追加したい列の名前と値を指定します。値の計算には、すでにデータフレームに存在する列名を用いることができます。したがって、「列のデータを加工・演算して新しい列を作る」場合にmutate関数を用いることになります。

データフレームの列のインデックスに値を代入しても同様の列の追加を行うことができますが、パイプ演算子の途中で代入を行うことはできません。mutate関数を用いれば、パイプ演算子中で列を追加し、以降の演算に用いることができます。

mutate関数で列を追加

iris |> tibble() |> mutate(Sepal.ratio = Sepal.Length / Sepal.Width) # Sepal.ratioを列として追加
## # A tibble: 150 × 6
##    Sepal.Length Sepal.Width Petal.Length Petal.Width Species Sepal.ratio
##           <dbl>       <dbl>        <dbl>       <dbl> <fct>         <dbl>
##  1          5.1         3.5          1.4         0.2 setosa         1.46
##  2          4.9         3            1.4         0.2 setosa         1.63
##  3          4.7         3.2          1.3         0.2 setosa         1.47
##  4          4.6         3.1          1.5         0.2 setosa         1.48
##  5          5           3.6          1.4         0.2 setosa         1.39
##  6          5.4         3.9          1.7         0.4 setosa         1.38
##  7          4.6         3.4          1.4         0.3 setosa         1.35
##  8          5           3.4          1.5         0.2 setosa         1.47
##  9          4.4         2.9          1.4         0.2 setosa         1.52
## 10          4.9         3.1          1.5         0.1 setosa         1.58
## # ℹ 140 more rows
…
これだけではapply関数より不便ですし、意味が無いように見えます。summarise関数が本領を発揮するのは、group_by関数により、データをグループ化した後になります。

16.5.6 group_by関数

group_by関数は、文字列か因子の列に従い、データフレームの行をグループ化するための関数です。

tidyr・dplyrでデータフレームを取り扱うと、データフレームは自動的にtibbleに変換されます。group_by関数でデータフレームをグループ化すると、tibbleにgroupというものが追加され、クラスに「grouped_df」というものが追加されます。group_by関数の機能はこれだけです。

グループ化したtibbleは、ungroup関数でグループ解除できます。

group_by関数でグループ化

iris |> group_by(Species) # tibbleの左上にGroups: Species[3]と表示される
## # A tibble: 150 × 5
## # Groups:   Species [3]
##    Sepal.Length Sepal.Width Petal.Length Petal.Width Species
##           <dbl>       <dbl>        <dbl>       <dbl> <fct>  
##  1          5.1         3.5          1.4         0.2 setosa 
##  2          4.9         3            1.4         0.2 setosa 
##  3          4.7         3.2          1.3         0.2 setosa 
##  4          4.6         3.1          1.5         0.2 setosa 
##  5          5           3.6          1.4         0.2 setosa 
##  6          5.4         3.9          1.7         0.4 setosa 
##  7          4.6         3.4          1.4         0.3 setosa 
##  8          5           3.4          1.5         0.2 setosa 
##  9          4.4         2.9          1.4         0.2 setosa 
## 10          4.9         3.1          1.5         0.1 setosa 
## # ℹ 140 more rows

iris |> group_by(Species) |> class() # クラスにgrouped_dfが追加
## [1] "grouped_df" "tbl_df"     "tbl"        "data.frame"

d <- iris |> group_by(Species)
ungroup(d) # グループの解除
## # A tibble: 150 × 5
##    Sepal.Length Sepal.Width Petal.Length Petal.Width Species
##           <dbl>       <dbl>        <dbl>       <dbl> <fct>  
##  1          5.1         3.5          1.4         0.2 setosa 
##  2          4.9         3            1.4         0.2 setosa 
##  3          4.7         3.2          1.3         0.2 setosa 
##  4          4.6         3.1          1.5         0.2 setosa 
##  5          5           3.6          1.4         0.2 setosa 
##  6          5.4         3.9          1.7         0.4 setosa 
##  7          4.6         3.4          1.4         0.3 setosa 
##  8          5           3.4          1.5         0.2 setosa 
##  9          4.4         2.9          1.4         0.2 setosa 
## 10          4.9         3.1          1.5         0.1 setosa 
## # ℹ 140 more rows
…
16.5.8 rowwise関数

rowwise関数は、mutateやsummariseでの演算を行方向に変更してくれる関数で、apply関数をMARGIN = 1と設定した場合とよく似た計算を行うことができる関数です。group_by関数の行方向版と言えるかもしれません。rowwise関数をデータフレームに適用すると、tibbleに「Rowwise:」の印がつき、クラスに「rowwise_df」が追加されます。rowwise関数もgroup_by関数と同じく、ungroup関数で解除することができます。

rowwise関数を用いることで、例えばminやmaxのような関数を、列方向ではなく行方向に対して適用することができます。

rowwise関数で行方向に演算

iris |> rowwise() # Rowwiseのラベルが付く
## # A tibble: 150 × 5
## # Rowwise: 
##    Sepal.Length Sepal.Width Petal.Length Petal.Width Species
##           <dbl>       <dbl>        <dbl>       <dbl> <fct>  
##  1          5.1         3.5          1.4         0.2 setosa 
##  2          4.9         3            1.4         0.2 setosa 
##  3          4.7         3.2          1.3         0.2 setosa 
##  4          4.6         3.1          1.5         0.2 setosa 
##  5          5           3.6          1.4         0.2 setosa 
##  6          5.4         3.9          1.7         0.4 setosa 
##  7          4.6         3.4          1.4         0.3 setosa 
##  8          5           3.4          1.5         0.2 setosa 
##  9          4.4         2.9          1.4         0.2 setosa 
## 10          4.9         3.1          1.5         0.1 setosa 
## # ℹ 140 more rows

iris |> rowwise() |> ungroup() # ungroupでRowwiseが消える
## # A tibble: 150 × 5
##    Sepal.Length Sepal.Width Petal.Length Petal.Width Species
##           <dbl>       <dbl>        <dbl>       <dbl> <fct>  
##  1          5.1         3.5          1.4         0.2 setosa 
##  2          4.9         3            1.4         0.2 setosa 
##  3          4.7         3.2          1.3         0.2 setosa 
##  4          4.6         3.1          1.5         0.2 setosa 
##  5          5           3.6          1.4         0.2 setosa 
##  6          5.4         3.9          1.7         0.4 setosa 
##  7          4.6         3.4          1.4         0.3 setosa 
##  8          5           3.4          1.5         0.2 setosa 
##  9          4.4         2.9          1.4         0.2 setosa 
## 10          4.9         3.1          1.5         0.1 setosa 
## # ℹ 140 more rows

iris |> rowwise() |> mutate(minr = min(c(Sepal.Length, Sepal.Width))) # 横（行）方向への演算
## # A tibble: 150 × 6
## # Rowwise: 
##    Sepal.Length Sepal.Width Petal.Length Petal.Width Species  minr
##           <dbl>       <dbl>        <dbl>       <dbl> <fct>   <dbl>
##  1          5.1         3.5          1.4         0.2 setosa    3.5
##  2          4.9         3            1.4         0.2 setosa    3  
##  3          4.7         3.2          1.3         0.2 setosa    3.2
##  4          4.6         3.1          1.5         0.2 setosa    3.1
##  5          5           3.6          1.4         0.2 setosa    3.6
##  6          5.4         3.9          1.7         0.4 setosa    3.9
##  7          4.6         3.4          1.4         0.3 setosa    3.4
##  8          5           3.4          1.5         0.2 setosa    3.4
##  9          4.4         2.9          1.4         0.2 setosa    2.9
## 10          4.9         3.1          1.5         0.1 setosa    3.1
## # ℹ 140 more rows

iris |> tibble() |> mutate(minr = min(c(Sepal.Length, Sepal.Width))) # 縦の最小値が出てくる
## # A tibble: 150 × 6
##    Sepal.Length Sepal.Width Petal.Length Petal.Width Species  minr
##           <dbl>       <dbl>        <dbl>       <dbl> <fct>   <dbl>
##  1          5.1         3.5          1.4         0.2 setosa      2
##  2          4.9         3            1.4         0.2 setosa      2
##  3          4.7         3.2          1.3         0.2 setosa      2
##  4          4.6         3.1          1.5         0.2 setosa      2
##  5          5           3.6          1.4         0.2 setosa      2
##  6          5.4         3.9          1.7         0.4 setosa      2
##  7          4.6         3.4          1.4         0.3 setosa      2
##  8          5           3.4          1.5         0.2 setosa      2
##  9          4.4         2.9          1.4         0.2 setosa      2
## 10          4.9         3.1          1.5         0.1 setosa      2
## # ℹ 140 more rows
…
iris |> head() |> tibble() |> pull(Species) # iris$Speciesと同じ
## [1] setosa setosa setosa setosa setosa setosa
## Levels: setosa versicolor virginica

# 列の並べ替え
iris |> tibble() |> relocate(Species, Petal.Width, Petal.Length, Sepal.Width, Sepal.Length)
## # A tibble: 150 × 5
##    Species Petal.Width Petal.Length Sepal.Width Sepal.Length
##    <fct>         <dbl>        <dbl>       <dbl>        <dbl>
##  1 setosa          0.2          1.4         3.5          5.1
##  2 setosa          0.2          1.4         3            4.9
##  3 setosa          0.2          1.3         3.2          4.7
##  4 setosa          0.2          1.5         3.1          4.6
##  5 setosa          0.2          1.4         3.6          5  
##  6 setosa          0.4          1.7         3.9          5.4
##  7 setosa          0.3          1.4         3.4          4.6
##  8 setosa          0.2          1.5         3.4          5  
##  9 setosa          0.2          1.4         2.9          4.4
## 10 setosa          0.1          1.5         3.1          4.9
## # ℹ 140 more rows

iris |> tibble() |> rename(S = Species) # 列名SpeciesをSに変更
## # A tibble: 150 × 5
##    Sepal.Length Sepal.Width Petal.Length Petal.Width S     
##           <dbl>       <dbl>        <dbl>       <dbl> <fct> 
##  1          5.1         3.5          1.4         0.2 setosa
##  2          4.9         3            1.4         0.2 setosa
##  3          4.7         3.2          1.3         0.2 setosa
##  4          4.6         3.1          1.5         0.2 setosa
##  5          5           3.6          1.4         0.2 setosa
##  6          5.4         3.9          1.7         0.4 setosa
##  7          4.6         3.4          1.4         0.3 setosa
##  8          5           3.4          1.5         0.2 setosa
##  9          4.4         2.9          1.4         0.2 setosa
## 10          4.9         3.1          1.5         0.1 setosa
## # ℹ 140 more rows
…
pacman::p_load(tidyverse)
d <- tibble(x = 1:3, y = c("a", "b", "c"), z = c(T, F, T)) # tibbleを作成
d
## # A tibble: 3 × 3
##       x y     z    
##   <int> <chr> <lgl>
## 1     1 a     TRUE 
## 2     2 b     FALSE
## 3     3 c     TRUE

class(d) # クラスはtbl_df、tbl、data.frame
## [1] "tbl_df"     "tbl"        "data.frame"

as_tibble(iris) # データフレームをtibbleに変換
## # A tibble: 150 × 5
##    Sepal.Length Sepal.Width Petal.Length Petal.Width Species
##           <dbl>       <dbl>        <dbl>       <dbl> <fct>  
##  1          5.1         3.5          1.4         0.2 setosa 
##  2          4.9         3            1.4         0.2 setosa 
##  3          4.7         3.2          1.3         0.2 setosa 
##  4          4.6         3.1          1.5         0.2 setosa 
##  5          5           3.6          1.4         0.2 setosa 
##  6          5.4         3.9          1.7         0.4 setosa 
##  7          4.6         3.4          1.4         0.3 setosa 
##  8          5           3.4          1.5         0.2 setosa 
##  9          4.4         2.9          1.4         0.2 setosa 
## 10          4.9         3.1          1.5         0.1 setosa 
## # ℹ 140 more rows
…
